<?xml version="1.0" encoding="UTF-8" standalone="no"?>
<svg
   xmlns:dc="http://purl.org/dc/elements/1.1/"
   xmlns:cc="http://creativecommons.org/ns#"
   xmlns:rdf="http://www.w3.org/1999/02/22-rdf-syntax-ns#"
   xmlns:svg="http://www.w3.org/2000/svg"
   xmlns="http://www.w3.org/2000/svg"
   viewBox="0 0 486.25 980"
   height="980"
   width="486.25"
   xml:space="preserve"
   version="1.1"
   id="svg2"><metadata
     id="metadata8"><rdf:RDF><cc:Work
         rdf:about=""><dc:format>image/svg+xml</dc:format><dc:type
           rdf:resource="http://purl.org/dc/dcmitype/StillImage" /></cc:Work></rdf:RDF></metadata><defs
     id="defs6" /><g
     transform="matrix(1.25,0,0,-1.25,0,980)"
     id="g10"><g
       transform="scale(0.1,0.1)"
       id="g12"><path
         id="path14"
         style="fill:none;stroke:#231f20;stroke-width:5.66930008;stroke-linecap:butt;stroke-linejoin:miter;stroke-miterlimit:22.92560005;stroke-dasharray:none;stroke-opacity:1"
         d="m 1942.3,5240.02 c -235.53,0 -426.46,190.94 -426.46,426.47 0,235.53 190.93,426.46 426.46,426.46 235.54,0 426.47,-190.93 426.47,-426.46 0,-235.53 -190.93,-426.47 -426.47,-426.47 z" /><path
         id="path16"
         style="fill:none;stroke:#231f20;stroke-width:5.66930008;stroke-linecap:butt;stroke-linejoin:miter;stroke-miterlimit:22.92560005;stroke-dasharray:none;stroke-opacity:1"
         d="m 3452.54,4368.28 c -235.53,0 -426.47,190.93 -426.47,426.47 0,235.52 190.94,426.46 426.47,426.46 235.53,0 426.46,-190.94 426.46,-426.46 0,-235.54 -190.93,-426.47 -426.46,-426.47 z" /><path
         id="path18"
         style="fill:none;stroke:#231f20;stroke-width:5.66930008;stroke-linecap:butt;stroke-linejoin:miter;stroke-miterlimit:22.92560005;stroke-dasharray:none;stroke-opacity:1"
         d="m 3452.54,2624.8 c -235.53,0 -426.47,190.93 -426.47,426.47 0,235.52 190.94,426.46 426.47,426.46 235.53,0 426.46,-190.94 426.46,-426.46 0,-235.54 -190.93,-426.47 -426.46,-426.47 z" /><path
         id="path20"
         style="fill:none;stroke:#231f20;stroke-width:5.66930008;stroke-linecap:butt;stroke-linejoin:miter;stroke-miterlimit:22.92560005;stroke-dasharray:none;stroke-opacity:1"
         d="m 1942.3,1753.06 c -235.53,0 -426.46,190.93 -426.46,426.46 0,235.53 190.93,426.47 426.46,426.47 235.54,0 426.47,-190.94 426.47,-426.47 0,-235.53 -190.93,-426.46 -426.47,-426.46 z" /><path
         id="path22"
         style="fill:none;stroke:#231f20;stroke-width:5.66930008;stroke-linecap:butt;stroke-linejoin:miter;stroke-miterlimit:22.92560005;stroke-dasharray:none;stroke-opacity:1"
         d="m 432.07,4368.28 c -235.531,0 -426.46453,190.93 -426.46453,426.47 0,235.53 190.93353,426.46 426.46453,426.46 235.532,0 426.465,-190.93 426.465,-426.46 0,-235.54 -190.933,-426.47 -426.465,-426.47 z" /><path
         id="path24"
         style="fill:none;stroke:#231f20;stroke-width:5.66930008;stroke-linecap:butt;stroke-linejoin:miter;stroke-miterlimit:22.92560005;stroke-dasharray:none;stroke-opacity:1"
         d="m 432.07,2624.8 c -235.531,0 -426.46453,190.93 -426.46453,426.47 0,235.53 190.93353,426.46 426.46453,426.46 235.532,0 426.465,-190.93 426.465,-426.46 0,-235.54 -190.933,-426.47 -426.465,-426.47 z" /><path
         id="path26"
         style="fill:none;stroke:#231f20;stroke-width:5.66930008;stroke-linecap:butt;stroke-linejoin:miter;stroke-miterlimit:22.92560005;stroke-dasharray:none;stroke-opacity:1"
         d="m 1942.3,9.57422 c -235.53,0 -426.46,190.93378 -426.46,426.46478 0,235.531 190.93,426.465 426.46,426.465 235.54,0 426.47,-190.934 426.47,-426.465 0,-235.531 -190.93,-426.46478 -426.47,-426.46478 z" /><path
         id="path28"
         style="fill:none;stroke:#231f20;stroke-width:5.66930008;stroke-linecap:butt;stroke-linejoin:miter;stroke-miterlimit:22.92560005;stroke-dasharray:none;stroke-opacity:1"
         d="m 3452.54,6111.76 c -235.53,0 -426.47,190.94 -426.47,426.47 0,235.53 190.94,426.46 426.47,426.46 235.53,0 426.46,-190.93 426.46,-426.46 0,-235.53 -190.93,-426.47 -426.46,-426.47 z" /><path
         id="path30"
         style="fill:none;stroke:#231f20;stroke-width:5.66930008;stroke-linecap:butt;stroke-linejoin:miter;stroke-miterlimit:22.92560005;stroke-dasharray:none;stroke-opacity:1"
         d="m 432.07,6111.77 c -235.531,0 -426.46453,190.93 -426.46453,426.46 0,235.53 190.93353,426.47 426.46453,426.47 235.532,0 426.465,-190.94 426.465,-426.47 0,-235.53 -190.933,-426.46 -426.465,-426.46 z" /><path
         id="path32"
         style="fill:none;stroke:#231f20;stroke-width:5.66930008;stroke-linecap:butt;stroke-linejoin:miter;stroke-miterlimit:22.92560005;stroke-dasharray:none;stroke-opacity:1"
         d="m 1942.3,6983.51 c -235.53,0 -426.46,190.93 -426.46,426.46 0,235.53 190.93,426.46 426.46,426.46 235.54,0 426.47,-190.93 426.47,-426.46 0,-235.53 -190.93,-426.46 -426.47,-426.46 z" /><path
         id="path34"
         style="fill:none;stroke:#231f20;stroke-width:5.66930008;stroke-linecap:butt;stroke-linejoin:miter;stroke-miterlimit:22.92560005;stroke-dasharray:none;stroke-opacity:1"
         d="m 1942.3,3496.54 c -235.53,0 -426.46,190.94 -426.46,426.46 0,235.54 190.93,426.47 426.46,426.47 235.54,0 426.47,-190.93 426.47,-426.47 0,-235.52 -190.93,-426.46 -426.47,-426.46 z" /><path
         id="path36"
         style="fill:none;stroke:#231f20;stroke-width:5.66930008;stroke-linecap:butt;stroke-linejoin:miter;stroke-miterlimit:22.92560005;stroke-dasharray:none;stroke-opacity:1"
         d="m 2002.9,6987.78 0,-899.1" /><path
         id="path38"
         style="fill:none;stroke:#231f20;stroke-width:5.66930008;stroke-linecap:butt;stroke-linejoin:miter;stroke-miterlimit:22.92560005;stroke-dasharray:none;stroke-opacity:1"
         d="m 1881.71,6987.78 0,-899.1" /><path
         id="path40"
         style="fill:none;stroke:#231f20;stroke-width:5.66930008;stroke-linecap:butt;stroke-linejoin:miter;stroke-miterlimit:22.92560005;stroke-dasharray:none;stroke-opacity:1"
         d="M 828.148,6379.82 1607.06,5930.11" /><path
         id="path42"
         style="fill:none;stroke:#231f20;stroke-width:5.66930008;stroke-linecap:butt;stroke-linejoin:miter;stroke-miterlimit:22.92560005;stroke-dasharray:none;stroke-opacity:1"
         d="M 767.535,6274.88 1546.36,5825.22" /><path
         id="path44"
         style="fill:none;stroke:#231f20;stroke-width:5.66930008;stroke-linecap:butt;stroke-linejoin:miter;stroke-miterlimit:22.92560005;stroke-dasharray:none;stroke-opacity:1"
         d="m 2338.32,5507.92 778.87,-449.68" /><path
         id="path46"
         style="fill:none;stroke:#231f20;stroke-width:5.66930008;stroke-linecap:butt;stroke-linejoin:miter;stroke-miterlimit:22.92560005;stroke-dasharray:none;stroke-opacity:1"
         d="m 2277.66,5403 778.87,-449.68" /><path
         id="path48"
         style="fill:none;stroke:#231f20;stroke-width:5.66930008;stroke-linecap:butt;stroke-linejoin:miter;stroke-miterlimit:22.92560005;stroke-dasharray:none;stroke-opacity:1"
         d="M 828.082,2892.7 1606.96,2443.02" /><path
         id="path50"
         style="fill:none;stroke:#231f20;stroke-width:5.66930008;stroke-linecap:butt;stroke-linejoin:miter;stroke-miterlimit:22.92560005;stroke-dasharray:none;stroke-opacity:1"
         d="M 1546.3,2338.1 767.426,2787.78" /><path
         id="path52"
         style="fill:none;stroke:#231f20;stroke-width:5.66930008;stroke-linecap:butt;stroke-linejoin:miter;stroke-miterlimit:22.92560005;stroke-dasharray:none;stroke-opacity:1"
         d="m 2338.32,2338.07 778.88,449.69" /><path
         id="path54"
         style="fill:none;stroke:#231f20;stroke-width:5.66930008;stroke-linecap:butt;stroke-linejoin:miter;stroke-miterlimit:22.92560005;stroke-dasharray:none;stroke-opacity:1"
         d="M 3056.53,2892.7 2277.66,2443.02" /><path
         id="path56"
         style="fill:none;stroke:#231f20;stroke-width:5.66930008;stroke-linecap:butt;stroke-linejoin:miter;stroke-miterlimit:22.92560005;stroke-dasharray:none;stroke-opacity:1"
         d="m 2338.31,5825.06 778.87,449.68" /><path
         id="path58"
         style="fill:none;stroke:#231f20;stroke-width:5.66930008;stroke-linecap:butt;stroke-linejoin:miter;stroke-miterlimit:22.92560005;stroke-dasharray:none;stroke-opacity:1"
         d="M 3056.53,6379.65 2277.66,5929.97" /><path
         id="path60"
         style="fill:none;stroke:#231f20;stroke-width:5.66930008;stroke-linecap:butt;stroke-linejoin:miter;stroke-miterlimit:22.92560005;stroke-dasharray:none;stroke-opacity:1"
         d="m 828.145,4953.16 778.915,449.71" /><path
         id="path62"
         style="fill:none;stroke:#231f20;stroke-width:5.66930008;stroke-linecap:butt;stroke-linejoin:miter;stroke-miterlimit:22.92560005;stroke-dasharray:none;stroke-opacity:1"
         d="M 1546.36,5507.75 767.535,5058.1" /><path
         id="path64"
         style="fill:none;stroke:#231f20;stroke-width:5.66930008;stroke-linecap:butt;stroke-linejoin:miter;stroke-miterlimit:22.92560005;stroke-dasharray:none;stroke-opacity:1"
         d="m 3391.94,4372.55 0,-899.09" /><path
         id="path66"
         style="fill:none;stroke:#231f20;stroke-width:5.66930008;stroke-linecap:butt;stroke-linejoin:miter;stroke-miterlimit:22.92560005;stroke-dasharray:none;stroke-opacity:1"
         d="m 3513.14,4372.55 0,-899.09" /><path
         id="path68"
         style="fill:none;stroke:#231f20;stroke-width:5.66930008;stroke-linecap:butt;stroke-linejoin:miter;stroke-miterlimit:22.92560005;stroke-dasharray:none;stroke-opacity:1"
         d="m 371.473,4372.55 0,-899.09" /><path
         id="path70"
         style="fill:none;stroke:#231f20;stroke-width:5.66930008;stroke-linecap:butt;stroke-linejoin:miter;stroke-miterlimit:22.92560005;stroke-dasharray:none;stroke-opacity:1"
         d="m 492.668,4372.55 0,-899.09" /><path
         id="path72"
         style="fill:none;stroke:#231f20;stroke-width:5.66930008;stroke-linecap:butt;stroke-linejoin:miter;stroke-miterlimit:22.92560005;stroke-dasharray:none;stroke-opacity:1"
         d="m 2002.9,1757.33 0,-899.1" /><path
         id="path74"
         style="fill:none;stroke:#231f20;stroke-width:5.66930008;stroke-linecap:butt;stroke-linejoin:miter;stroke-miterlimit:22.92560005;stroke-dasharray:none;stroke-opacity:1"
         d="m 1881.71,858.23 0,899.1" /><path
         id="path76"
         style="fill:none;stroke:#231f20;stroke-width:5.66930008;stroke-linecap:butt;stroke-linejoin:miter;stroke-miterlimit:22.92560005;stroke-dasharray:none;stroke-opacity:1"
         d="m 2002.9,5244.3 0,-899.1" /><path
         id="path78"
         style="fill:none;stroke:#231f20;stroke-width:5.66930008;stroke-linecap:butt;stroke-linejoin:miter;stroke-miterlimit:22.92560005;stroke-dasharray:none;stroke-opacity:1"
         d="m 1881.71,5244.3 0,-899.1" /><path
         id="path80"
         style="fill:none;stroke:#231f20;stroke-width:5.66930008;stroke-linecap:butt;stroke-linejoin:miter;stroke-miterlimit:22.92560005;stroke-dasharray:none;stroke-opacity:1"
         d="m 2002.9,3500.82 0,-899.11" /><path
         id="path82"
         style="fill:none;stroke:#231f20;stroke-width:5.66930008;stroke-linecap:butt;stroke-linejoin:miter;stroke-miterlimit:22.92560005;stroke-dasharray:none;stroke-opacity:1"
         d="m 1881.71,3500.82 0,-899.11" /><path
         id="path84"
         style="fill:#00adef;fill-opacity:1;fill-rule:evenodd;stroke:none"
         d="m 2172.22,5498.61 -459.83,0 229.91,398.13 229.92,-398.13" /><path
         id="path86"
         style="fill:none;stroke:#231f20;stroke-width:5.66930008;stroke-linecap:butt;stroke-linejoin:miter;stroke-miterlimit:22.92560005;stroke-dasharray:none;stroke-opacity:1"
         d="m 2172.22,5498.61 -459.83,0 229.91,398.13 229.92,-398.13 z" /><path
         id="path88"
         style="fill:#00adef;fill-opacity:1;fill-rule:evenodd;stroke:none"
         d="m 1712.41,2345.91 459.8,-5.39 -234.57,-395.41 -225.23,400.8" /><path
         id="path90"
         style="fill:none;stroke:#231f20;stroke-width:5.66930008;stroke-linecap:butt;stroke-linejoin:miter;stroke-miterlimit:22.92560005;stroke-dasharray:none;stroke-opacity:1"
         d="m 1712.41,2345.91 459.8,-5.39 -234.57,-395.41 -225.23,400.8 z" /><path
         id="path92"
         style="fill:#0994dc;fill-opacity:1;fill-rule:evenodd;stroke:none"
         d="m 1942.3,7617.56 c -33,0 -59.76,26.76 -59.76,59.77 0,33.01 26.76,59.76 59.76,59.76 33.01,0 59.77,-26.75 59.77,-59.76 0,-33.01 -26.76,-59.77 -59.77,-59.77" /><path
         id="path94"
         style="fill:#0994dc;fill-opacity:1;fill-rule:evenodd;stroke:none"
         d="m 1942.3,7462.48 0,63.72 -265.71,-362.52 165.95,0 -44.95,73.09 144.71,225.71" /><path
         id="path96"
         style="fill:#0994dc;fill-opacity:1;fill-rule:evenodd;stroke:none"
         d="m 1942.3,7462.48 0,63.72 265.72,-362.52 -165.95,0 44.95,73.09 -144.72,225.71" /><path
         id="path98"
         style="fill:#00adef;fill-opacity:1;fill-rule:evenodd;stroke:none"
         d="m 1942.3,446.539 c -19.07,0 -34.54,15.465 -34.54,34.547 0,19.078 15.47,34.547 34.54,34.547 19.09,0 34.56,-15.469 34.56,-34.547 0,-19.082 -15.47,-34.547 -34.56,-34.547" /><path
         id="path100"
         style="fill:#00adef;fill-opacity:1;fill-rule:evenodd;stroke:none"
         d="m 1942.3,658.93 c 98.49,0 178.33,-79.828 178.33,-178.321 0,-92.257 -70.09,-168.16 -159.92,-177.367 l 0,-130.801 200.61,0 0,89.153 C 2130.79,231.559 2046.49,217.02 1992.7,217.02 l 0,50.402 c 96.67,22.766 168.62,109.578 168.62,213.195 0,120.965 -98.05,219.02 -219.02,219.02 -258.78,0 -299.6,-373.563 -50.39,-432.211 l 0,-52.817 c -53.79,0 -138.09,14.543 -168.62,44.582 l 0,-86.75 200.61,0 -0.01,130.797 c -89.82,9.211 -159.9,85.114 -159.9,177.379 0,98.485 79.83,178.313 178.31,178.313" /></g></g></svg>